{
    "name": "Tower.Controllers",
    "references": [
        "GUID:fc664b5fcf8099b48a9bba455ba69934",
        "GUID:0d8beb7f090555447a6cf5ce9e54dbb4",
        "GUID:04e7b0653f7d7cc45b3a6242b57a705c",
        "GUID:6161dab5e148ba54698fb45997ac5e58",
        "GUID:734d92eba21c94caba915361bd5ac177",
        "GUID:a5a6e25c4f5d5524c99ce330a0ea5545",
        "GUID:d8b63aba1907145bea998dd612889d6b",
        "GUID:ed3aff38e7854114fa0a98ad47db83b9"
    ],
    "includePlatforms": [],
    "excludePlatforms": [],
    "allowUnsafeCode": true,
    "overrideReferences": true,
    "precompiledReferences": [
        "Zenject-usage.dll"
    ],
    "autoReferenced": false,
    "defineConstraints": [],
    "versionDefines": [],
    "noEngineReferences": false
}