%YAML 1.1
%TAG !u! tag:unity3d.com,2011:
--- !u!114 &11400000
MonoBehaviour:
  m_ObjectHideFlags: 0
  m_CorrespondingSourceObject: {fileID: 0}
  m_PrefabInstance: {fileID: 0}
  m_PrefabAsset: {fileID: 0}
  m_GameObject: {fileID: 0}
  m_Enabled: 1
  m_EditorHideFlags: 0
  m_Script: {fileID: 11500000, guid: 16dfb7c9265e128488e2d3a9e2d4cdcd, type: 3}
  m_Name: TowerConfig
  m_EditorClassIdentifier: 
  _gridSize: 64
  _frameRate: 60
  _logicFrameRate: 60
  _unitsCount: 10000
  _minUnitCellMovementTime: 0.1
  _maxUnitCellMovementTime: 0.4
